{
"type": "FeatureCollection",
"crs": { "type": "name", "properties": { "name": "urn:ogc:def:crs:OGC:1.3:CRS84" } },
"features": [
{ "type": "Feature", "properties": { }, "geometry": { "type": "Polygon", "coordinates": [ [ [ 34.311587619267051, 8.680216246044763 ], [ 34.344629869070829, 8.598216488298826 ], [ 34.352744524938636, 8.553789399074303 ], [ 34.357381890088163, 8.520160102178512 ], [ 34.356591390411502, 8.498044821001473 ], [ 34.343215833093176, 8.467358261465776 ], [ 34.334069442106923, 8.43672278384645 ], [ 34.314366695866937, 8.404909454618647 ], [ 34.312455314942241, 8.388045112691771 ], [ 34.328346277320861, 8.38507618894169 ], [ 34.346438874373874, 8.374763985347291 ], [ 34.394074752723654, 8.398900975369514 ], [ 34.435510828261869, 8.419890994064891 ], [ 34.470353859448224, 8.445693490080709 ], [ 34.521844750568199, 8.47366171482073 ], [ 34.555684239433916, 8.45325095191922 ], [ 34.573430944412259, 8.401596439571172 ], [ 34.629493034345458, 8.400117675624074 ], [ 34.666583631878311, 8.393156583966983 ], [ 34.72898913696725, 8.387519813500518 ], [ 34.766796314703747, 8.361496223458735 ], [ 34.784406774357123, 8.353359813346426 ], [ 34.794228367467298, 8.325026376880679 ], [ 34.784959728576929, 8.301756523547361 ], [ 34.82558333662729, 8.260052823087056 ], [ 34.854250907685042, 8.248764426707703 ], [ 34.881740398110274, 8.249048195510181 ], [ 34.925102899884159, 8.247159980139607 ], [ 34.963947572652245, 8.245464387950822 ], [ 35.017414145513008, 8.217761160958705 ], [ 35.072400932888399, 8.21830240183959 ], [ 35.118068203777725, 8.198726468276595 ], [ 35.137286091081904, 8.179944756785655 ], [ 35.156813882542565, 8.134827728583071 ], [ 35.142425876772151, 8.140970951591605 ], [ 35.103033684277086, 8.113235383697422 ], [ 35.088242706551071, 8.112039815864998 ], [ 35.117091112994082, 8.080705956495478 ], [ 35.139871211871025, 8.019807243243209 ], [ 35.140178947075128, 7.987145367043451 ], [ 35.107713035672361, 7.955230863098176 ], [ 35.04749595407386, 7.952554186076996 ], [ 35.007635707821656, 7.921619785593806 ], [ 35.012256995282634, 7.880575667024427 ], [ 34.999771018980979, 7.860439368365342 ], [ 34.949842617966347, 7.888404098049186 ], [ 34.943431183941975, 7.877510943631265 ], [ 34.931432511086825, 7.826071888801278 ], [ 34.936268145117559, 7.762911185243671 ], [ 34.931133822929652, 7.726286382887383 ], [ 34.994629158744658, 7.746092053549892 ], [ 35.037661656689878, 7.737630651426136 ], [ 35.076251335549266, 7.729123163812262 ], [ 35.115445347272868, 7.643958972813756 ], [ 35.115570665831108, 7.630100285438343 ], [ 35.145593458848893, 7.629544776557045 ], [ 35.16624011787227, 7.614176733260074 ], [ 35.164641236285497, 7.579716555239527 ], [ 35.170050325414302, 7.554458634089765 ], [ 35.171892392750763, 7.531556222578402 ], [ 35.160460754907113, 7.525726473177565 ], [ 35.145763549980373, 7.518230865949767 ], [ 35.137627683234122, 7.510792832883702 ], [ 35.126291559817304, 7.4943232931522 ], [ 35.120652721958024, 7.4828149322716 ], [ 35.122336159589068, 7.477918908442879 ], [ 35.161347614425011, 7.470676253494902 ], [ 35.182687619553555, 7.458136255813351 ], [ 35.189187617834172, 7.454946252481518 ], [ 35.209447616605132, 7.47118625317942 ], [ 35.243843824157416, 7.472993120932662 ], [ 35.253643551748027, 7.477698101356107 ], [ 35.261957781734445, 7.479801510710779 ], [ 35.272540163227525, 7.470796293118986 ], [ 35.30949196798268, 7.478496233070926 ], [ 35.319992473051187, 7.462327700004303 ], [ 35.328888305710713, 7.460923889271053 ], [ 35.345248520199, 7.452192235038757 ], [ 35.355747020272439, 7.436021889032568 ], [ 35.373586562974729, 7.427300630480752 ], [ 35.36777360613992, 7.413951701999236 ], [ 35.392237030528563, 7.395508393132387 ], [ 35.387482159525803, 7.34999681719499 ], [ 35.382694500915207, 7.333583887849755 ], [ 35.380366783285304, 7.317190857565937 ], [ 35.374851584631806, 7.289310350677485 ], [ 35.370037676421198, 7.276172407632869 ], [ 35.352939553487033, 7.261298512897067 ], [ 35.345746094147358, 7.238317427552795 ], [ 35.372864643742425, 7.230347381308552 ], [ 35.347720845113479, 7.196580235652592 ], [ 35.33960913911902, 7.185872553821689 ], [ 35.333858267409404, 7.1874639200516 ], [ 35.333923922288363, 7.179277688330282 ], [ 35.352984858022324, 7.153231510406695 ], [ 35.368635678868188, 7.143530793209181 ], [ 35.380427615758762, 7.121916252593982 ], [ 35.371313858778905, 7.115715749677991 ], [ 35.354089848873201, 7.117217700646155 ], [ 35.330327616958343, 7.125826250238834 ], [ 35.31314953038428, 7.113988280863315 ], [ 35.299565564906928, 7.114712597197332 ], [ 35.290385898156892, 7.120817321667732 ], [ 35.279412639983128, 7.128114258947229 ], [ 35.264167615985912, 7.134966249983946 ], [ 35.234207616911512, 7.137036252243323 ], [ 35.224452374385173, 7.119831867590076 ], [ 35.217993930671092, 7.106661319665211 ], [ 35.20410924107059, 7.098349243625098 ], [ 35.156490438352371, 7.100416302334432 ], [ 35.145001521900589, 7.100320876570405 ], [ 35.113811231300964, 7.100880139947055 ], [ 35.083254795646013, 7.12357539291721 ], [ 35.067527615933201, 7.154326255840033 ], [ 35.053328555629555, 7.182790580139942 ], [ 35.020357585120671, 7.184513168906132 ], [ 35.010430970780931, 7.193443093895781 ], [ 34.977438675860483, 7.212005666108412 ], [ 34.969728528207177, 7.233248083039965 ], [ 34.965461442168376, 7.214005883277677 ], [ 34.941992967704856, 7.19163944247319 ], [ 34.897690019212405, 7.183858703095813 ], [ 34.890520956212498, 7.158683263637135 ], [ 34.892605558389278, 7.09075376854942 ], [ 34.876538132914334, 7.06845465393303 ], [ 34.88427009167382, 7.030117969574193 ], [ 34.902011022688768, 7.030273705569789 ], [ 34.911255566574965, 6.987516649364909 ], [ 34.945638612664695, 6.943497097617463 ], [ 34.973888861096285, 6.9245334067951 ], [ 34.997814512516769, 6.89223444688074 ], [ 34.992149841738566, 6.862640518915303 ], [ 34.968538400306976, 6.858010576520865 ], [ 34.94516509279412, 6.825314245289499 ], [ 34.933591372331811, 6.79567233457232 ], [ 34.98530226942443, 6.797581633333305 ], [ 35.042843885773351, 6.809875217937387 ], [ 35.07979469746968, 6.810176702140054 ], [ 35.116972724420975, 6.782403962508185 ], [ 35.146710235914981, 6.7604774430665 ], [ 35.179494117279262, 6.726750276852741 ], [ 35.178154704807795, 6.709008067123374 ], [ 35.1975970011488, 6.679605787329187 ], [ 35.187434860178143, 6.655884560963289 ], [ 35.186184891017021, 6.626321693331803 ], [ 35.195277377228344, 6.596837994811926 ], [ 35.186716185317358, 6.556875606309566 ], [ 35.185512289220675, 6.489156001853464 ], [ 35.17378596717851, 6.46593185367959 ], [ 35.186562207029837, 6.443685327005846 ], [ 35.199419827346148, 6.410266951161127 ], [ 35.178045201164004, 6.37803577653941 ], [ 35.16433121015892, 6.381537351583384 ], [ 35.142966911160585, 6.396512232729461 ], [ 35.131094309284897, 6.394621188065821 ], [ 35.118853954285754, 6.345883323356428 ], [ 35.105739600925723, 6.317678900297674 ], [ 35.082989011715178, 6.316827430360593 ], [ 35.073007285990698, 6.306181366845028 ], [ 35.037813056649554, 6.3033979509635 ], [ 35.010834128085769, 6.279032078372365 ], [ 34.984514644247454, 6.297575660097557 ], [ 34.987060288086695, 6.343797088050288 ], [ 34.985912987474208, 6.352434924501747 ], [ 34.985663542697907, 6.384497938262332 ], [ 34.997480059943861, 6.39323689132272 ], [ 35.002105607074014, 6.400478664837709 ], [ 35.002730406376394, 6.412733306975676 ], [ 35.012938498749833, 6.443077397593487 ], [ 35.005741032714127, 6.462392396146367 ], [ 34.983389126558748, 6.487330579540825 ], [ 34.955209884119952, 6.501878864034819 ], [ 34.953614540940805, 6.516638699533694 ], [ 34.938618505089423, 6.54458552144596 ], [ 34.919333442487108, 6.5547694780672 ], [ 34.904442660571164, 6.569419708203329 ], [ 34.883715949075032, 6.57515803567709 ], [ 34.887988688668834, 6.594396056197333 ], [ 34.85539549884431, 6.605942583613067 ], [ 34.843653298914909, 6.596982216889028 ], [ 34.805240041886584, 6.598137067812964 ], [ 34.787654488796008, 6.581742052040295 ], [ 34.771296680498715, 6.594896036069279 ], [ 34.74595050376454, 6.622740861771674 ], [ 34.729501143498695, 6.646229038354182 ], [ 34.714591039536494, 6.662344974903069 ], [ 34.706922734633736, 6.694767921989883 ], [ 34.680284784279486, 6.700441154924138 ], [ 34.648992777853039, 6.73117496898985 ], [ 34.628169076952311, 6.747232044097668 ], [ 34.612068266345183, 6.730844401941214 ], [ 34.560309856264539, 6.737758931389171 ], [ 34.535081785931993, 6.750816774488284 ], [ 34.53493249380422, 6.767056558232931 ], [ 34.533060120409843, 6.809856793353706 ], [ 34.529817914962841, 6.840832359421703 ], [ 34.519284900391213, 6.861404317048141 ], [ 34.511816002072067, 6.870192903143928 ], [ 34.483442619043622, 6.902405826986667 ], [ 34.441826766972319, 6.928582267446933 ], [ 34.419526144003108, 6.943129786855982 ], [ 34.409114065754309, 6.950409983145645 ], [ 34.382409295385706, 6.961959228057673 ], [ 34.358774730275208, 6.961727454097957 ], [ 34.321744721825652, 6.971694183827828 ], [ 34.286058616571218, 6.994954045883278 ], [ 34.254786274476928, 7.019729466299953 ], [ 34.2312133586626, 7.013586578680528 ], [ 34.2146485387251, 7.044409731205776 ], [ 34.192401134236739, 7.053035603433797 ], [ 34.191988096962355, 7.092876917636772 ], [ 34.191772990706269, 7.113535340558183 ], [ 34.191541808064606, 7.135669337504808 ], [ 34.164748381743472, 7.154573059968421 ], [ 34.144066084614394, 7.154354965110919 ], [ 34.127612017271446, 7.173363899065452 ], [ 34.098225012324335, 7.177561900820529 ], [ 34.098225017962093, 7.183850610148013 ], [ 34.091195718978945, 7.194578414137313 ], [ 34.075657260640924, 7.2082656177509 ], [ 34.053459455684738, 7.218623510125759 ], [ 34.043100476730174, 7.219363366677148 ], [ 34.033111472153678, 7.233420490357536 ], [ 34.018312942120133, 7.247477618111348 ], [ 34.010913679517856, 7.257835499020121 ], [ 34.009433833503273, 7.267823451071866 ], [ 34.01720306660922, 7.265973824180956 ], [ 34.0260821903737, 7.264124196399817 ], [ 34.032001614789266, 7.273372294218855 ], [ 34.034221411257235, 7.291868497882869 ], [ 34.030521793688436, 7.313694023697578 ], [ 34.029810003975072, 7.334608928546733 ], [ 34.032371642506845, 7.352166131014195 ], [ 34.027932092811355, 7.367702948158588 ], [ 34.011653715851509, 7.390638258098344 ], [ 34.003884494386305, 7.406175078528434 ], [ 33.997225159262939, 7.416532960172825 ], [ 33.991339271090155, 7.422117154882453 ], [ 33.983906486607673, 7.434289330542953 ], [ 33.956899156489321, 7.445387078028869 ], [ 33.955789279402637, 7.461293817795853 ], [ 33.944320413627949, 7.466102841656375 ], [ 33.942124243533542, 7.479268264339146 ], [ 33.942692216860969, 7.490539683550391 ], [ 33.94665760873297, 7.498904842690039 ], [ 33.952043718817713, 7.508390615359325 ], [ 33.969709842767195, 7.530327540452274 ], [ 33.946092766457838, 7.501590262417716 ], [ 33.925689528539074, 7.510090727472532 ], [ 33.90273588115177, 7.51604106068715 ], [ 33.886583306742686, 7.510090761321017 ], [ 33.870430743512806, 7.516041088659932 ], [ 33.855128331224634, 7.539842355706895 ], [ 33.839553097156639, 7.556657653570859 ], [ 33.833024838760842, 7.566193763745928 ], [ 33.815606528618034, 7.581447014119815 ], [ 33.792218383704345, 7.60274572694054 ], [ 33.776915949076745, 7.601895695792927 ], [ 33.768414603815565, 7.609546106926037 ], [ 33.751645115024225, 7.614598349813637 ], [ 33.736109479243225, 7.625696988146697 ], [ 33.732143221382074, 7.637956890069365 ], [ 33.719106797685669, 7.649498259587145 ], [ 33.711455585437307, 7.654598535782651 ], [ 33.693462078273704, 7.658127317725698 ], [ 33.689352080531201, 7.667349229235502 ], [ 33.680850732307661, 7.671599461469516 ], [ 33.682841369097453, 7.680115400747392 ], [ 33.671499261173487, 7.690300457785371 ], [ 33.663517263273967, 7.688722669668893 ], [ 33.651693727722716, 7.688575104685658 ], [ 33.635418179836016, 7.689845955985765 ], [ 33.629395031340152, 7.698617410129968 ], [ 33.62191230270431, 7.705895748124261 ], [ 33.611641726559213, 7.699868468152288 ], [ 33.598343227964278, 7.703684249570131 ], [ 33.585096973401633, 7.695109821875848 ], [ 33.579317204749252, 7.684715934575259 ], [ 33.561490521329894, 7.69186160103787 ], [ 33.54918056055795, 7.699853845535236 ], [ 33.539603419578725, 7.701769079714881 ], [ 33.530026284570916, 7.711345214482207 ], [ 33.523003056419022, 7.720282938380927 ], [ 33.514064399006273, 7.729859072661101 ], [ 33.501933347171367, 7.725390225570743 ], [ 33.499379449804252, 7.733051128655494 ], [ 33.489802302693583, 7.72858227913063 ], [ 33.472563458612122, 7.741988871929677 ], [ 33.463622575373719, 7.744968860192964 ], [ 33.460379586438656, 7.739209546370344 ], [ 33.460379541180536, 7.739209545656897 ], [ 33.446996905052643, 7.737964364646134 ], [ 33.430789092060479, 7.749540168959674 ], [ 33.423342841441261, 7.746095471727252 ], [ 33.415738975921805, 7.738543183315567 ], [ 33.406477331349656, 7.732755299541018 ], [ 33.396636863074455, 7.72928257255403 ], [ 33.389690649164201, 7.725809842760416 ], [ 33.380429037420356, 7.728125009510392 ], [ 33.373482826905772, 7.728125016301122 ], [ 33.365378909507385, 7.722915919381129 ], [ 33.358914692985572, 7.717729462361105 ], [ 33.350614506424456, 7.721559920861017 ], [ 33.34614516748934, 7.715814249713605 ], [ 33.341675827917015, 7.709430170200348 ], [ 33.332098682663599, 7.706876546057058 ], [ 33.319329154697691, 7.70432292518214 ], [ 33.318492004174409, 7.710182596340946 ], [ 33.314440057333655, 7.719443231155859 ], [ 33.302540599835716, 7.72345256387334 ], [ 33.30228419967122, 7.729861452918092 ], [ 33.303390743460277, 7.733653102665505 ], [ 33.298668938854874, 7.73788782200516 ], [ 33.291488852794593, 7.732803069326995 ], [ 33.29418030151853, 7.743752407446863 ], [ 33.285537916449648, 7.741303524824226 ], [ 33.280437105145978, 7.739603439863294 ], [ 33.271026241939687, 7.746646379402937 ], [ 33.254239576424126, 7.75648581679063 ], [ 33.246714520292706, 7.761694929400513 ], [ 33.237452918199764, 7.771534359328027 ], [ 33.223557788573316, 7.767525453182242 ], [ 33.216035439572252, 7.769219222721364 ], [ 33.198669942368248, 7.777322291452894 ], [ 33.19230255977233, 7.779058667846535 ], [ 33.18304094876963, 7.781952624584989 ], [ 33.164517732734097, 7.793528432859896 ], [ 33.156413824490322, 7.795264809433148 ], [ 33.15524084660683, 7.789869818730647 ], [ 33.144377529753939, 7.788008398780748 ], [ 33.13672502900895, 7.782208936446801 ], [ 33.132680953924037, 7.786004200648454 ], [ 33.122261608752609, 7.781373897128656 ], [ 33.114157723022409, 7.782531482820128 ], [ 33.107993606437397, 7.777101697800599 ], [ 33.1009703696743, 7.778378521933523 ], [ 33.104162755582514, 7.78540101165709 ], [ 33.098528731987187, 7.790055763674999 ], [ 33.094476806001097, 7.794107292571162 ], [ 33.087530599981214, 7.79815882609782 ], [ 33.083731520387289, 7.790508300545653 ], [ 33.072238947567811, 7.789231495588486 ], [ 33.061384846915018, 7.784124239295662 ], [ 33.055638556575246, 7.789231513503529 ], [ 33.049253790521433, 7.785401069468509 ], [ 33.047011031843077, 7.790055815379603 ], [ 33.044381890539796, 7.799874483862052 ], [ 33.043471053093569, 7.809834396619874 ], [ 33.0360128922661, 7.817837722334136 ], [ 33.022120492588648, 7.837516579807146 ], [ 33.009385793525496, 7.856037857435675 ], [ 33.003495987946472, 7.869996607263423 ], [ 33.000703050962926, 7.877453078903766 ], [ 33.003018457900488, 7.883240971851889 ], [ 33.01285892603557, 7.886713698581141 ], [ 33.007649276904715, 7.89713191577053 ], [ 33.003597328382249, 7.904077394456911 ], [ 33.001281935519593, 7.913916819031845 ], [ 33.004184254440268, 7.92450557659995 ], [ 33.001281958980385, 7.9382259800483 ], [ 33.008294458328336, 7.94665929230823 ], [ 33.02754581003564, 7.959048200895318 ], [ 33.035434193039777, 7.972374527590238 ], [ 33.029645702014037, 7.98858064162561 ], [ 33.035547835322838, 8.003027843634223 ], [ 33.045423180529269, 8.012674501249466 ], [ 33.058009416399855, 8.012310984054187 ], [ 33.070962232945803, 8.017781742386338 ], [ 33.073784467102577, 8.018552817271125 ], [ 33.076661302475863, 8.022771719189846 ], [ 33.079921735776885, 8.045975693433208 ], [ 33.07800385499651, 8.051920516303349 ], [ 33.085867200410426, 8.05920770759792 ], [ 33.082606801714363, 8.068029058208548 ], [ 33.084908271958739, 8.073206802977015 ], [ 33.096032018106555, 8.07359032785628 ], [ 33.103703566879368, 8.073590319625142 ], [ 33.110607956427728, 8.06956317549151 ], [ 33.117320552089211, 8.058632368527654 ], [ 33.1182795006318, 8.063234809442944 ], [ 33.116277642726374, 8.073838622366919 ], [ 33.115594482120791, 8.085096411760466 ], [ 33.11502124382303, 8.096410856248974 ], [ 33.116937019915298, 8.100629652264825 ], [ 33.119189478956891, 8.104894061033738 ], [ 33.125007241088213, 8.107025087809188 ], [ 33.129807374821333, 8.108752947272651 ], [ 33.135644336948737, 8.110404011648408 ], [ 33.145398204927673, 8.110442398206217 ], [ 33.151465358709608, 8.108521559604188 ], [ 33.152348795604055, 8.108215365149867 ], [ 33.156476911511596, 8.108580132022192 ], [ 33.159299389375299, 8.108906503438213 ], [ 33.162505880935129, 8.112170244275552 ], [ 33.165558774352561, 8.121097541519335 ], [ 33.170320509310223, 8.125014029584456 ], [ 33.173661403767682, 8.125609179257193 ], [ 33.1853737211176, 8.12167347516935 ], [ 33.190538670475199, 8.128738516126399 ], [ 33.18925224393189, 8.131215123050533 ], [ 33.187366381354728, 8.134862270853061 ], [ 33.183117698481666, 8.143007805033886 ], [ 33.182611249207881, 8.156895115678051 ], [ 33.184008999884739, 8.159784586252766 ], [ 33.176111857218231, 8.164390776869208 ], [ 33.174795672335485, 8.170313012528938 ], [ 33.174227339913273, 8.178062433206158 ], [ 33.171833499854692, 8.186207357725539 ], [ 33.167762462968795, 8.184756527543994 ], [ 33.164818450777275, 8.18695991878641 ], [ 33.164996499826614, 8.192733681275424 ], [ 33.174395606932215, 8.200366490081235 ], [ 33.189770759785382, 8.208791445830752 ], [ 33.195867002944567, 8.216106148534688 ], [ 33.199194213042361, 8.225153933680192 ], [ 33.201765729755735, 8.231958592301261 ], [ 33.199953168637315, 8.237913537463294 ], [ 33.197380793782962, 8.245693480384459 ], [ 33.188433188555344, 8.247151887498291 ], [ 33.179367613536407, 8.246198697760597 ], [ 33.174734786218337, 8.252642098112039 ], [ 33.172211113940008, 8.261355336991986 ], [ 33.174986450471003, 8.281966534378602 ], [ 33.168492270348651, 8.292155336932995 ], [ 33.169811924152583, 8.296010241516907 ], [ 33.177943343056612, 8.294531948478566 ], [ 33.194206189828215, 8.296010215292737 ], [ 33.200859180773996, 8.304140772213445 ], [ 33.200119967780985, 8.310793052766133 ], [ 33.192333392508509, 8.324366173468617 ], [ 33.191163362679617, 8.330995684708801 ], [ 33.203726868274032, 8.331067254730078 ], [ 33.209729852970554, 8.332967308618443 ], [ 33.213950376101494, 8.340057815653221 ], [ 33.215649755756829, 8.353379047176857 ], [ 33.210469093360267, 8.351445863198162 ], [ 33.199380785895379, 8.34775016411149 ], [ 33.19352006411517, 8.347138024830564 ], [ 33.191588521886857, 8.351517300444577 ], [ 33.190383374120934, 8.365703120824149 ], [ 33.188292513719404, 8.378055007697156 ], [ 33.188980681187125, 8.384584309571229 ], [ 33.194206288537188, 8.389881277128064 ], [ 33.188980698099222, 8.399903242494135 ], [ 33.191817842553782, 8.405009550400996 ], [ 33.207138390242825, 8.403307429968102 ], [ 33.21564369096896, 8.406142383396533 ], [ 33.216083855827172, 8.412819535707873 ], [ 33.213978734968173, 8.42509819305171 ], [ 33.216382936096061, 8.430534077338185 ], [ 33.233240086551845, 8.420895806178663 ], [ 33.237779512979216, 8.424867376512998 ], [ 33.245951746356248, 8.433490614337929 ], [ 33.247730369097908, 8.442105832534267 ], [ 33.257971741243487, 8.444836565095478 ], [ 33.266392427021067, 8.448932671513678 ], [ 33.272563691132511, 8.450490857832888 ], [ 33.274813110538737, 8.45098072015784 ], [ 33.279364824415644, 8.445746789766723 ], [ 33.285869639128727, 8.434229713377954 ], [ 33.290304961255593, 8.43496885085702 ], [ 33.294840659159803, 8.434823798248914 ], [ 33.297697167473757, 8.438664554213203 ], [ 33.299847557418438, 8.440967966133849 ], [ 33.304399290649535, 8.453483869864295 ], [ 33.310999289006766, 8.458035102274353 ], [ 33.315095835639895, 8.457124849946483 ], [ 33.319134559203583, 8.448273380982137 ], [ 33.320102715061559, 8.445974307739455 ], [ 33.331701296574487, 8.442360229349081 ], [ 33.336261313677795, 8.440512803005646 ], [ 33.348703362472996, 8.443099353413661 ], [ 33.354240605162325, 8.44119546978073 ], [ 33.359930251457861, 8.438237158059218 ], [ 33.366075073879081, 8.439147399389618 ], [ 33.369401517554067, 8.434229624318178 ], [ 33.371619172669263, 8.429055626170427 ], [ 33.379730224163545, 8.429817343929168 ], [ 33.38633021048399, 8.4232180398126 ], [ 33.394534993213362, 8.421664179261331 ], [ 33.39970954028221, 8.426838169530235 ], [ 33.410797851639629, 8.437186149551245 ], [ 33.421146941821846, 8.443838418934012 ], [ 33.424792264354998, 8.44529151019883 ], [ 33.436626727181626, 8.437781952682199 ], [ 33.447019640888712, 8.435707826895477 ], [ 33.457792229650686, 8.44665684746616 ], [ 33.461804058559942, 8.448273229714779 ], [ 33.472153143940631, 8.450490645649174 ], [ 33.475771524563633, 8.450525382213701 ], [ 33.480185493171348, 8.453333971894459 ], [ 33.483509449744993, 8.456214423680368 ], [ 33.488301807658594, 8.467081311996088 ], [ 33.495227351357826, 8.468988136824935 ], [ 33.499363745961119, 8.469121794031713 ], [ 33.510144873090191, 8.469121782774904 ], [ 33.518656285659915, 8.465717566508484 ], [ 33.523933217314976, 8.465475521382329 ], [ 33.532765793642966, 8.466880546355739 ], [ 33.54083544024774, 8.465717017573324 ], [ 33.546145469103983, 8.465717012067474 ], [ 33.555549822336694, 8.46728196106563 ], [ 33.559511083052762, 8.466852260010858 ], [ 33.562676102831389, 8.465876919547199 ], [ 33.567542456398066, 8.454177767153094 ], [ 33.568202495016699, 8.449380162403981 ], [ 33.575068998673032, 8.445436269182572 ], [ 33.594336294348579, 8.444228940616618 ], [ 33.598837272197031, 8.44488750360337 ], [ 33.609457345047403, 8.459590636772083 ], [ 33.619198357583834, 8.466689153600528 ], [ 33.63927519873782, 8.459182185671434 ], [ 33.648261397979212, 8.455914811193841 ], [ 33.660923500414135, 8.448093643798419 ], [ 33.679304625785605, 8.438761111929281 ], [ 33.678487689148092, 8.429775858271542 ], [ 33.675628439129888, 8.42610007524514 ], [ 33.680938455523666, 8.413847450303226 ], [ 33.682163836868519, 8.404045353485275 ], [ 33.687882322858634, 8.397510617408582 ], [ 33.691150025085385, 8.389750621904101 ], [ 33.692965204817575, 8.379222230245981 ], [ 33.694009256388071, 8.375864317350297 ], [ 33.69972774367649, 8.370554843371469 ], [ 33.708825297410414, 8.368630687007611 ], [ 33.715657823316846, 8.363611676752077 ], [ 33.72464402437658, 8.361977985314351 ], [ 33.731587908270313, 8.361977978441248 ], [ 33.736897938754574, 8.363611655716886 ], [ 33.741419554841031, 8.3684862590805 ], [ 33.744250292085951, 8.369329537307392 ], [ 33.746701077067812, 8.371780058688895 ], [ 33.750377253316927, 8.374230578865642 ], [ 33.754461885481049, 8.369737947926764 ], [ 33.771617361243315, 8.367695827885081 ], [ 33.775959422195612, 8.374432895917746 ], [ 33.777466028727012, 8.373338525566886 ], [ 33.78958979023237, 8.383624214440259 ], [ 33.798576000313702, 8.392201039078369 ], [ 33.806745275698695, 8.392609451724399 ], [ 33.812872236304074, 8.397918914100158 ], [ 33.819816126463756, 8.404453637569198 ], [ 33.824309235694052, 8.413438887385304 ], [ 33.826351559259507, 8.418339933134494 ], [ 33.836563158555769, 8.424057812222028 ], [ 33.839422409599379, 8.428958857212972 ], [ 33.845140902840768, 8.429775692936214 ], [ 33.851218725312044, 8.429662124531045 ], [ 33.864338700869119, 8.43345146020757 ], [ 33.87536722198449, 8.433451449506473 ], [ 33.877409542703901, 8.435493550774018 ], [ 33.874141841522444, 8.443661966914364 ], [ 33.880677269007677, 8.451421952994933 ], [ 33.880677275805311, 8.458365104149367 ], [ 33.888029625157976, 8.460407200303029 ], [ 33.892155327900291, 8.47133034383079 ], [ 33.897465363735805, 8.478681910601907 ], [ 33.924475555769462, 8.484972559918694 ], [ 33.93463557871609, 8.492976597883242 ], [ 33.945255638673288, 8.49583553232052 ], [ 33.949748736612037, 8.492568162665236 ], [ 33.955467226954561, 8.490526053843729 ], [ 33.971376493103591, 8.496472121706118 ], [ 33.979566586634512, 8.489709189435386 ], [ 33.984468148716175, 8.486850240114087 ], [ 33.990595103973284, 8.486033392948078 ], [ 33.998142160115506, 8.489440979920349 ], [ 34.00121516737704, 8.492568113442253 ], [ 34.014177729443837, 8.484972474114214 ], [ 34.019596028714751, 8.486850206800439 ], [ 34.026539919627325, 8.494610192804993 ], [ 34.032258425172792, 8.50849649002026 ], [ 34.040929766412248, 8.515590468090254 ], [ 34.040836170585557, 8.515848053940008 ], [ 34.051456233460023, 8.52197435395998 ], [ 34.060442442546616, 8.529325917582604 ], [ 34.069648188861166, 8.540237656877537 ], [ 34.080457181422332, 8.54688798783361 ], [ 34.095570340526052, 8.548113235655396 ], [ 34.100889887463978, 8.553736808513353 ], [ 34.120325376310277, 8.573170212735283 ], [ 34.141255917235235, 8.60904728145726 ], [ 34.141255955479124, 8.649409007126856 ], [ 34.153214212206926, 8.649299212166643 ], [ 34.188798340431191, 8.649749052925324 ], [ 34.197638461192028, 8.654287517407823 ], [ 34.222677740848646, 8.667883785409362 ], [ 34.234335594058457, 8.684263681353443 ], [ 34.254892550034839, 8.700755017306413 ], [ 34.27854772923444, 8.706953411442054 ], [ 34.311587619267051, 8.680216246044763 ] ] ] } }
]
}
